<?xml version="1.0" encoding="iso-8859-1"?>

<!-- Generator: Adobe Illustrator 19.0.0, SVG Export Plug-In . SVG Version: 6.00 Build 0)  -->

<svg version="1.1" id="Layer_1" xmlns="http://www.w3.org/2000/svg" xmlns:xlink="http://www.w3.org/1999/xlink" x="0px" y="0px"

	 viewBox="0 0 512 512" style="enable-background:new 0 0 512 512;" xml:space="preserve">

<g>

	<g>

		<g>

			<path d="M256,134.737c16.345,0,29.642-13.298,29.642-29.642c0-4.466-3.62-8.084-8.084-8.084c-4.465,0-8.084,3.618-8.084,8.084

				c0,7.43-6.044,13.474-13.474,13.474c-7.43,0-13.474-6.044-13.474-13.474S248.57,91.621,256,91.621

				c4.465,0,8.084-3.619,8.084-8.084s-3.62-8.084-8.084-8.084c-16.345,0-29.642,13.298-29.642,29.642S239.655,134.737,256,134.737z"

				/>

			<path d="M363.789,425.768h86.232c4.465,0,8.084-3.619,8.084-8.084s-3.62-8.084-8.084-8.084h-86.232

				c-4.465,0-8.084,3.619-8.084,8.084S359.325,425.768,363.789,425.768z"/>

			<path d="M363.789,458.105h57.487c4.465,0,8.084-3.619,8.084-8.084c0-4.466-3.618-8.084-8.084-8.084h-57.487

				c-4.465,0-8.084,3.618-8.084,8.084C355.705,454.487,359.325,458.105,363.789,458.105z"/>

			<path d="M256,167.074c34.176,0,61.979-27.803,61.979-61.979S290.176,43.116,256,43.116s-61.979,27.803-61.979,61.979

				S221.824,167.074,256,167.074z M256,59.284c25.26,0,45.811,20.55,45.811,45.81c0,25.26-20.55,45.811-45.811,45.811

				s-45.811-20.55-45.811-45.811C210.189,79.834,230.74,59.284,256,59.284z"/>

			<path d="M481.601,140.126h-23.496V29.642C458.105,13.298,444.808,0,428.463,0H83.537C67.192,0,53.895,13.298,53.895,29.642

				v110.484H30.399C13.636,140.126,0,153.763,0,170.525v46.551v37.846v227.436C0,498.702,13.297,512,29.642,512h452.716

				C498.703,512,512,498.702,512,482.358v-225.28v-40.002v-46.551C512,153.763,498.364,140.126,481.601,140.126z M495.832,208.992

				h-53.356c-12.567,0-23.806,7.968-27.969,19.825l-20.947,59.671c-1.892,5.391-7.001,9.011-12.713,9.011h-38.616

				c-4.465,0-8.084,3.619-8.084,8.084s3.62,8.084,8.084,8.084h38.616c12.566,0,23.806-7.967,27.969-19.825l20.947-59.671

				c1.892-5.391,7.001-9.011,12.713-9.011h53.356v31.918v225.28c0,7.43-6.044,13.474-13.474,13.474H29.642

				c-7.43,0-13.474-6.044-13.474-13.474V254.922V225.16h52.293c5.635,0,10.721,3.557,12.656,8.851l21.99,60.187

				c4.254,11.645,15.443,19.469,27.842,19.469h178.946c4.465,0,8.084-3.618,8.084-8.084c0-4.466-3.62-8.084-8.084-8.084H130.949

				c-5.636,0-10.722-3.557-12.656-8.851l-21.99-60.188c-4.254-11.646-15.444-19.47-27.842-19.47H16.168v-38.467

				c0-7.845,6.383-14.229,14.23-14.229h23.496v35.032c0,4.466,3.62,8.084,8.084,8.084c4.465,0,8.084-3.618,8.084-8.084V29.642

				c0-7.43,6.044-13.474,13.474-13.474h344.926c7.43,0,13.474,6.044,13.474,13.474V148.2v0.011v0.011v43.105

				c0,4.466,3.62,8.084,8.084,8.084c4.465,0,8.084-3.618,8.084-8.084v-35.032h23.496c7.847,0,14.23,6.384,14.23,14.23V208.992z"/>

			<path d="M396.126,97.011h-32.337c-4.465,0-8.084,3.618-8.084,8.084c0,4.466,3.62,8.084,8.084,8.084h32.337

				c4.465,0,8.084-3.618,8.084-8.084C404.211,100.629,400.591,97.011,396.126,97.011z"/>

			<path d="M187.406,220.968h137.187c4.465,0,8.084-3.619,8.084-8.084s-3.62-8.084-8.084-8.084H187.406

				c-4.465,0-8.084,3.619-8.084,8.084S182.941,220.968,187.406,220.968z"/>

			<path d="M363.789,247.916H148.21c-4.465,0-8.084,3.619-8.084,8.084c0,4.466,3.62,8.084,8.084,8.084h215.579

				c4.465,0,8.084-3.619,8.084-8.084C371.874,251.534,368.254,247.916,363.789,247.916z"/>

			<path d="M156.295,105.095c0-4.466-3.62-8.084-8.084-8.084h-32.337c-4.465,0-8.084,3.618-8.084,8.084

				c0,4.466,3.62,8.084,8.084,8.084h32.337C152.675,113.179,156.295,109.56,156.295,105.095z"/>

		</g>

	</g>

</g>

<g>

</g>

<g>

</g>

<g>

</g>

<g>

</g>

<g>

</g>

<g>

</g>

<g>

</g>

<g>

</g>

<g>

</g>

<g>

</g>

<g>

</g>

<g>

</g>

<g>

</g>

<g>

</g>

<g>

</g>

</svg>

